hyperparameter-tuning – Lab 6 - Machine Learning in Hydrology
…
types <- c("clim", "geol", "soil", "topo", "vege", "hydro")
remote_files  <- glue('{root}/camels_{types}.txt')
local_files   <- glue('data/camels_{types}.txt')

walk2(remote_files, local_files, download.file, quiet = TRUE)
camels <- map(local_files, read_delim, show_col_types = FALSE) 

camels <- map(local_files, read_delim, show_col_types = FALSE) 

camels <- power_full_join(camels ,by = 'gauge_id')

camels %>% drop_na()

# A tibble: 507 × 58
   gauge_id p_mean pet_mean p_seasonality frac_snow aridity high_prec_freq
   <chr>     <dbl>    <dbl>         <dbl>     <dbl>   <dbl>          <dbl>
 1 01022500   3.61     2.12       -0.115      0.245   0.587           20.6
 2 01031500   3.52     2.07        0.104      0.292   0.588           18.9
 3 01047000   3.32     2.09        0.148      0.280   0.629           20.1
 4 01052500   3.73     2.10        0.152      0.353   0.562           13.5
 5 01054200   4.07     2.13        0.105      0.300   0.523           17.5
 6 01055000   3.49     2.09        0.167      0.306   0.599           19.2
 7 01057000   3.57     2.13        0.0791     0.251   0.597           20.4
 8 01073000   3.50     2.21        0.0304     0.175   0.630           20.8
 9 01078000   3.56     2.18        0.110      0.240   0.613           21.4
10 01118300   3.90     2.31       -0.0377     0.111   0.593           21.5
# ℹ 497 more rows
# ℹ 51 more variables: high_prec_dur <dbl>, high_prec_timing <chr>,
#   low_prec_freq <dbl>, low_prec_dur <dbl>, low_prec_timing <chr>,
#   geol_1st_class <chr>, glim_1st_class_frac <dbl>, geol_2nd_class <chr>,
#   glim_2nd_class_frac <dbl>, carbonate_rocks_frac <dbl>, geol_porostiy <dbl>,
#   geol_permeability <dbl>, soil_depth_pelletier <dbl>,
#   soil_depth_statsgo <dbl>, soil_porosity <dbl>, soil_conductivity <dbl>, …
…
collect_metrics(model_params)

# A tibble: 60 × 8
   tree_depth loss_reduction .metric .estimator   mean     n  std_err .config   
        <int>          <dbl> <chr>   <chr>       <dbl> <int>    <dbl> <chr>     
 1          1  0.000000428   mae     standard   0.0148    10 0.00103  Preproces…
 2          1  0.000000428   rmse    standard   0.0218    10 0.00134  Preproces…
 3          1  0.000000428   rsq     standard   0.998     10 0.000323 Preproces…
 4          1  0.000455      mae     standard   0.0172    10 0.00114  Preproces…
 5          1  0.000455      rmse    standard   0.0249    10 0.00138  Preproces…
 6          1  0.000455      rsq     standard   0.997     10 0.000369 Preproces…
 7          2  0.483         mae     standard   0.0372    10 0.00134  Preproces…
 8          2  0.483         rmse    standard   0.0544    10 0.00336  Preproces…
 9          2  0.483         rsq     standard   0.992     10 0.000647 Preproces…
10          2  0.00000000162 mae     standard   0.0104    10 0.000887 Preproces…
# ℹ 50 more rows
…
collect_metrics(fit)

# A tibble: 3 × 4
  .metric .estimator .estimate .config             
  <chr>   <chr>          <dbl> <chr>               
1 rsq     standard     1.00    Preprocessor1_Model1
2 rmse    standard     0.00836 Preprocessor1_Model1
3 mae     standard     0.00567 Preprocessor1_Model1

The final model performs better all across the board, though usually only a hundredth of a decimal better or so. It is better than the training data results.

collect_predictions(fit)

# A tibble: 134 × 5
   .pred id                .row logQmean .config             
   <dbl> <chr>            <int>    <dbl> <chr>               
 1 0.993 train/test split     1    0.993 Preprocessor1_Model1
 2 1.03  train/test split     3    1.04  Preprocessor1_Model1
 3 1.04  train/test split     9    1.04  Preprocessor1_Model1
 4 1.12  train/test split    15    1.12  Preprocessor1_Model1
 5 1.03  train/test split    18    1.03  Preprocessor1_Model1
 6 1.18  train/test split    22    1.17  Preprocessor1_Model1
 7 1.04  train/test split    35    1.03  Preprocessor1_Model1
 8 1.01  train/test split    42    1.02  Preprocessor1_Model1
 9 0.620 train/test split    43    0.617 Preprocessor1_Model1
10 0.691 train/test split    44    0.692 Preprocessor1_Model1
# ℹ 124 more rows
…
